[
	{
		"frame":"200",
		"y":"-1",
		"x":"-1"
	},
	{
		"frame":"201",
		"y":"-1",
		"x":"-1"
	},
	{
		"frame":"202",
		"y":"-1",
		"x":"-1"
	},
	{
		"frame":"203",
		"y":"-1",
		"x":"-1"
	},
	{
		"frame":"204",
		"y":"-1",
		"x":"-1"
	},
	{
		"frame":"205",
		"y":"-1",
		"x":"-1"
	},
	{
		"frame":"206",
		"y":"-1",
		"x":"-1"
	},
	{
		"frame":"207",
		"y":"-1",
		"x":"-1"
	},
	{
		"frame":"208",
		"y":"-1",
		"x":"-1"
	},
	{
		"frame":"209",
		"y":"-1",
		"x":"-1"
	},
	{
		"frame":"210",
		"y":"-1",
		"x":"-1"
	},
	{
		"frame":"211",
		"y":"-1",
		"x":"-1"
	},
	{
		"frame":"212",
		"y":"-1",
		"x":"-1"
	},
	{
		"frame":"213",
		"y":"-1",
		"x":"-1"
	},
	{
		"frame":"214",
		"y":"-1",
		"x":"-1"
	},
	{
		"frame":"215",
		"y":"455",
		"x":"112"
	},
	{
		"frame":"216",
		"y":"449",
		"x":"112"
	},
	{
		"frame":"217",
		"y":"423",
		"x":"111"
	},
	{
		"frame":"218",
		"y":"410",
		"x":"111"
	},
	{
		"frame":"219",
		"y":"403",
		"x":"110"
	},
	{
		"frame":"220",
		"y":"380",
		"x":"110"
	},
	{
		"frame":"221",
		"y":"370",
		"x":"109"
	},
	{
		"frame":"222",
		"y":"355",
		"x":"109"
	},
	{
		"frame":"223",
		"y":"346",
		"x":"108"
	},
	{
		"frame":"224",
		"y":"346",
		"x":"109"
	},
	{
		"frame":"225",
		"y":"330",
		"x":"109"
	},
	{
		"frame":"226",
		"y":"327",
		"x":"108"
	},
	{
		"frame":"227",
		"y":"327",
		"x":"108"
	},
	{
		"frame":"228",
		"y":"320",
		"x":"107"
	},
	{
		"frame":"229",
		"y":"317",
		"x":"107"
	},
	{
		"frame":"230",
		"y":"316",
		"x":"106"
	},
	{
		"frame":"231",
		"y":"311",
		"x":"105"
	},
	{
		"frame":"232",
		"y":"312",
		"x":"104"
	},
	{
		"frame":"233",
		"y":"304",
		"x":"104"
	},
	{
		"frame":"234",
		"y":"300",
		"x":"104"
	},
	{
		"frame":"235",
		"y":"293",
		"x":"101"
	},
	{
		"frame":"236",
		"y":"295",
		"x":"100"
	},
	{
		"frame":"237",
		"y":"294",
		"x":"101"
	},
	{
		"frame":"238",
		"y":"291",
		"x":"100"
	},
	{
		"frame":"239",
		"y":"290",
		"x":"100"
	},
	{
		"frame":"240",
		"y":"290",
		"x":"100"
	},
	{
		"frame":"241",
		"y":"287",
		"x":"100"
	},
	{
		"frame":"242",
		"y":"287",
		"x":"99"
	},
	{
		"frame":"243",
		"y":"287",
		"x":"99"
	},
	{
		"frame":"244",
		"y":"284",
		"x":"99"
	},
	{
		"frame":"245",
		"y":"285",
		"x":"99"
	},
	{
		"frame":"246",
		"y":"286",
		"x":"99"
	},
	{
		"frame":"247",
		"y":"285",
		"x":"99"
	},
	{
		"frame":"248",
		"y":"286",
		"x":"99"
	},
	{
		"frame":"249",
		"y":"-1",
		"x":"-1"
	},
	{
		"frame":"250",
		"y":"-1",
		"x":"-1"
	}
]
